{
  "enabledManagers": [
    "helmv3",
    "gitlabci",
    "pre-commit"
  ],
  "helmv3": {
    "commitBody": "changelog: dependency",
    "allowedPostUpgradeCommands": [
      "helm-docs"
    ],
    "postUpgradeTasks": {
      "commands": [
        "helm-docs -c charts -o ../../README.md"
      ],
      "fileFilters": [
        "README.md"
      ]
    }
  },
  "gitlabci": {
    "commitBody": "changelog: ci"
  },
  "pre-commit": {
    "commitBody": "changelog: chore"
  }
}
